src/test.vcd
$version Generated by VerilatedVcd $end
$timescale 1ps $end
 $scope module TOP $end
  $scope module FBA_ALU_tb $end
   $var wire 32 ? clk_half_prd [31:0] $end
   $var wire 32 @ clk_prd [31:0] $end
   $var wire 32 A p_width [31:0] $end
   $var wire 1 6 clk $end
   $var wire 1 # rst $end
   $var wire 1 $ load_shift $end
   $var wire 1 % output_enable $end
   $var wire 1 / ser_A $end
   $var wire 1 & serial_in_A $end
   $var wire 1 0 ser_B $end
   $var wire 1 ' serial_in_B $end
   $var wire 1 7 out $end
   $var wire 1 1 carry_out $end
   $var wire 8 ( reg_A [7:0] $end
   $var wire 8 ) reg_B [7:0] $end
   $var wire 8 8 reg_Out [7:0] $end
   $var wire 3 * func_sel [2:0] $end
   $var wire 32 + n_shift [31:0] $end
   $scope module A $end
    $var wire 32 A P_WIDTH [31:0] $end
    $var wire 1 6 clk $end
    $var wire 1 # rst $end
    $var wire 1 $ l_s $end
    $var wire 1 & s_in $end
    $var wire 8 ( p_in [7:0] $end
    $var wire 1 / s_out $end
    $var wire 8 2 p_tmp [7:0] $end
   $upscope $end
   $scope module ALU $end
    $var wire 1 6 clk $end
    $var wire 1 # rst $end
    $var wire 1 / A $end
    $var wire 1 0 B $end
    $var wire 3 * func [2:0] $end
    $var wire 1 7 out $end
    $var wire 1 1 c_out $end
    $var wire 1 9 c_in $end
    $var wire 1 : b_buffer $end
    $var wire 1 ; s_out $end
    $var wire 1 1 c_reg $end
    $var wire 1 , func_en $end
    $var wire 1 - carry_en $end
    $var wire 1 . logic_sel $end
    $scope module FBA $end
     $var wire 1 / A $end
     $var wire 1 : B $end
     $var wire 1 1 C_in $end
     $var wire 1 ; Sum $end
     $var wire 1 9 C_out $end
     $var wire 1 < partial_sum1 $end
     $var wire 1 = partial_carry1 $end
     $var wire 1 > partial_carry2 $end
    $upscope $end
   $upscope $end
   $scope module ALU_output $end
    $var wire 32 A P_WIDTH [31:0] $end
    $var wire 1 6 clk $end
    $var wire 1 # rst $end
    $var wire 1 % oe $end
    $var wire 1 7 s_in $end
    $var wire 8 8 p_out [7:0] $end
    $var wire 1 3 s_out $end
    $var wire 8 4 p_tmp [7:0] $end
   $upscope $end
   $scope module B $end
    $var wire 32 A P_WIDTH [31:0] $end
    $var wire 1 6 clk $end
    $var wire 1 # rst $end
    $var wire 1 $ l_s $end
    $var wire 1 ' s_in $end
    $var wire 8 ) p_in [7:0] $end
    $var wire 1 0 s_out $end
    $var wire 8 5 p_tmp [7:0] $end
   $upscope $end
  $upscope $end
 $upscope $end
$enddefinitions $end


#0
0#
0$
0%
0&
0'
b00000000 (
b00000000 )
b000 *
b00000000000000000000000000000000 +
0,
0-
0.
0/
00
01
b00000000 2
03
b00000000 4
b00000000 5
06
07
b00000000 8
09
0:
0;
0<
0=
0>
b00000000000000000000000000000001 ?
b00000000000000000000000000000010 @
b00000000000000000000000000001000 A
#1
16
#2
06
#3
16
#4
1#
06
#5
16
#6
1$
06
#7
16
#8
06
#9
16
#10
06
#11
16
#12
06
#13
16
#14
06
#15
16
#16
06
#17
16
#18
06
#19
16
#20
06
#21
16
#22
0$
b11111111 (
b11111111 )
06
#23
1/
10
b11111111 2
b11111111 5
16
19
1:
1<
1>
#24
1$
06
#25
b01111111 2
b01111111 5
16
#26
06
#27
b00111111 2
b00111111 5
16
#28
06
#29
b00011111 2
b00011111 5
16
#30
06
#31
b00001111 2
b00001111 5
16
#32
06
#33
b00000111 2
b00000111 5
16
#34
06
#35
b00000011 2
b00000011 5
16
#36
06
#37
b00000001 2
b00000001 5
16
#38
06
#39
0/
00
b00000000 2
b00000000 5
16
09
0:
0<
0>
#40
0$
b11000100 (
b10011100 )
06
#41
b11000100 2
b10011100 5
16
#42
1$
06
#43
b01100010 2
b01001110 5
16
#44
06
#45
1/
10
b00110001 2
b00100111 5
16
19
1:
1<
1>
#46
06
#47
0/
b00011000 2
b00010011 5
16
17
09
1;
0>
#48
06
#49
b00001100 2
b10000000 4
b00001001 5
16
b10000000 8
#50
06
#51
00
b00000110 2
b11000000 4
b00000100 5
16
07
b11000000 8
0:
0;
0<
#52
06
#53
1/
b00000011 2
b01100000 4
b00000010 5
16
17
b01100000 8
1;
#54
06
#55
10
b00000001 2
b10110000 4
b00000001 5
16
07
b10110000 8
19
1:
0;
1<
1>
#56
06
#57
0/
00
b00000000 2
b01011000 4
b00000000 5
16
b01011000 8
09
0:
0<
0>
#58
0#
b00000000 (
b00000000 )
06
b00000000 8
#59
b00000000 4
16
#60
1#
0$
b001 *
1.
06
#61
11
16
17
1;
1<
#62
1$
06
#63
b10000000 4
16
b10000000 8
#64
06
#65
b11000000 4
16
b11000000 8
#66
06
#67
b11100000 4
16
b11100000 8
#68
06
#69
b11110000 4
16
b11110000 8
#70
06
#71
b11111000 4
16
b11111000 8
#72
06
#73
b11111100 4
16
b11111100 8
#74
06
#75
b11111110 4
16
b11111110 8
#76
06
#77
b11111111 4
16
b11111111 8
#78
0$
b11111111 (
b11111111 )
06
#79
1/
10
b11111111 2
13
b11111111 5
16
19
1:
0<
1=
#80
1$
06
#81
b01111111 2
b01111111 5
16
#82
06
#83
b00111111 2
b00111111 5
16
#84
06
#85
b00011111 2
b00011111 5
16
#86
06
#87
b00001111 2
b00001111 5
16
#88
06
#89
b00000111 2
b00000111 5
16
#90
06
#91
b00000011 2
b00000011 5
16
#92
06
#93
b00000001 2
b00000001 5
16
#94
06
#95
0/
00
b00000000 2
b00000000 5
16
09
0:
1<
0=
#96
0$
b00000010 (
b11100100 )
06
#97
b00000010 2
b11100100 5
16
#98
1$
06
#99
1/
b00000001 2
b01110010 5
16
07
19
0;
1>
#100
06
#101
0/
10
b00000000 2
b01111111 4
b00111001 5
16
b01111111 8
1:
0<
1=
0>
#102
06
#103
00
b00111111 4
b00011100 5
16
17
b00111111 8
09
0:
1;
1<
0=
#104
06
#105
b10011111 4
b00001110 5
16
b10011111 8
#106
06
#107
10
b11001111 4
b00000111 5
16
07
b11001111 8
19
1:
0;
0<
1=
#108
06
#109
b01100111 4
b00000011 5
16
b01100111 8
#110
06
#111
b00110011 4
b00000001 5
16
b00110011 8
#112
06
#113
00
b00011001 4
b00000000 5
16
17
b00011001 8
09
0:
1;
1<
0=
#114
0#
b00000000 (
b00000000 )
06
b00000000 8
#115
01
03
b00000000 4
16
07
0;
0<
#116
1#
0$
b010 *
1-
0.
06
#117
16
#118
1$
06
#119
16
#120
06
#121
16
#122
06
#123
16
#124
06
#125
16
#126
06
#127
16
#128
06
#129
16
#130
06
#131
16
#132
06
#133
16
#134
0$
b11111111 (
b11111111 )
06
#135
1/
10
b11111111 2
b11111111 5
16
19
1:
1<
1>
#136
1$
06
#137
11
b01111111 2
b01111111 5
16
17
1;
0<
1=
0>
#138
06
#139
b00111111 2
b10000000 4
b00111111 5
16
b10000000 8
#140
06
#141
b00011111 2
b11000000 4
b00011111 5
16
b11000000 8
#142
06
#143
b00001111 2
b11100000 4
b00001111 5
16
b11100000 8
#144
06
#145
b00000111 2
b11110000 4
b00000111 5
16
b11110000 8
#146
06
#147
b00000011 2
b11111000 4
b00000011 5
16
b11111000 8
#148
06
#149
b00000001 2
b11111100 4
b00000001 5
16
b11111100 8
#150
06
#151
0/
00
b00000000 2
b11111110 4
b00000000 5
16
b11111110 8
09
0:
1<
0=
#152
0$
b01111000 (
b10111100 )
06
#153
01
b01111000 2
b11111111 4
b10111100 5
16
07
b11111111 8
0;
0<
#154
1$
06
#155
b00111100 2
13
b01111111 4
b01011110 5
16
b01111111 8
#156
06
#157
10
b00011110 2
b00111111 4
b00101111 5
16
17
b00111111 8
1:
1;
1<
#158
06
#159
1/
b00001111 2
b10011111 4
b00010111 5
16
07
b10011111 8
19
0;
1>
#160
06
#161
11
b00000111 2
b01001111 4
b00001011 5
16
17
b01001111 8
1;
0<
1=
0>
#162
06
#163
b00000011 2
b10100111 4
b00000101 5
16
b10100111 8
#164
06
#165
00
b00000001 2
b11010011 4
b00000010 5
16
07
b11010011 8
0:
0;
1<
0=
1>
#166
06
#167
0/
10
b00000000 2
b01101001 4
b00000001 5
16
b01101001 8
1:
0<
1=
0>
#168
06
#169
00
b00110100 4
b00000000 5
16
17
b00110100 8
09
0:
1;
1<
0=
#170
0#
b00000000 (
b00000000 )
06
b00000000 8
#171
01
03
b00000000 4
16
07
0;
0<
#172
1#
0$
b011 *
1.
06
#173
11
16
17
1;
1<
#174
1$
06
#175
b10000000 4
16
b10000000 8
#176
06
#177
b11000000 4
16
b11000000 8
#178
06
#179
b11100000 4
16
b11100000 8
#180
06
#181
b11110000 4
16
b11110000 8
#182
06
#183
b11111000 4
16
b11111000 8
#184
06
#185
b11111100 4
16
b11111100 8
#186
06
#187
b11111110 4
16
b11111110 8
#188
06
#189
b11111111 4
16
b11111111 8
#190
0$
b11111111 (
b11111111 )
06
#191
1/
10
b11111111 2
13
b11111111 5
16
07
19
0;
1>
#192
1$
06
#193
b01111111 2
b01111111 4
b01111111 5
16
b01111111 8
#194
06
#195
b00111111 2
b00111111 4
b00111111 5
16
b00111111 8
#196
06
#197
b00011111 2
b00011111 4
b00011111 5
16
b00011111 8
#198
06
#199
b00001111 2
b00001111 4
b00001111 5
16
b00001111 8
#200
06
#201
b00000111 2
b00000111 4
b00000111 5
16
b00000111 8
#202
06
#203
b00000011 2
b00000011 4
b00000011 5
16
b00000011 8
#204
06
#205
b00000001 2
b00000001 4
b00000001 5
16
b00000001 8
#206
06
#207
0/
00
b00000000 2
b00000000 4
b00000000 5
16
17
b00000000 8
09
1;
0>
#208
0$
b10110110 (
b11100100 )
06
#209
b10110110 2
03
b10000000 4
b11100100 5
16
b10000000 8
#210
1$
06
#211
1/
b01011011 2
b11000000 4
b01110010 5
16
07
b11000000 8
19
0;
1>
#212
06
#213
10
b00101101 2
b01100000 4
b00111001 5
16
b01100000 8
#214
06
#215
0/
00
b00010110 2
b00110000 4
b00011100 5
16
17
b00110000 8
09
1;
0>
#216
06
#217
1/
b00001011 2
b10011000 4
b00001110 5
16
07
b10011000 8
19
0;
1>
#218
06
#219
10
b00000101 2
b01001100 4
b00000111 5
16
b01001100 8
#220
06
#221
0/
b00000010 2
b00100110 4
b00000011 5
16
17
b00100110 8
09
1;
0>
#222
06
#223
1/
b00000001 2
b10010011 4
b00000001 5
16
07
b10010011 8
19
0;
1>
#224
06
#225
0/
00
b00000000 2
13
b01001001 4
b00000000 5
16
17
b01001001 8
09
1;
0>
#226
0#
b00000000 (
b00000000 )
06
b00000000 8
#227
01
03
b00000000 4
16
07
0;
0<
#228
1#
0$
b100 *
1,
0-
0.
06
#229
16
#230
1$
06
#231
16
#232
06
#233
16
#234
06
#235
16
#236
06
#237
16
#238
06
#239
16
#240
06
#241
16
#242
06
#243
16
#244
06
#245
16
#246
0$
b11111111 (
b11111111 )
06
#247
1/
10
b11111111 2
b11111111 5
16
17
19
1:
1<
1>
#248
1$
06
#249
b01111111 2
b10000000 4
b01111111 5
16
b10000000 8
#250
06
#251
b00111111 2
b11000000 4
b00111111 5
16
b11000000 8
#252
06
#253
b00011111 2
b11100000 4
b00011111 5
16
b11100000 8
#254
06
#255
b00001111 2
b11110000 4
b00001111 5
16
b11110000 8
#256
06
#257
b00000111 2
b11111000 4
b00000111 5
16
b11111000 8
#258
06
#259
b00000011 2
b11111100 4
b00000011 5
16
b11111100 8
#260
06
#261
b00000001 2
b11111110 4
b00000001 5
16
b11111110 8
#262
06
#263
0/
00
b00000000 2
b11111111 4
b00000000 5
16
07
b11111111 8
09
0:
0<
0>
#264
0$
b10110111 (
b01010011 )
06
#265
1/
10
b10110111 2
13
b01111111 4
b01010011 5
16
17
b01111111 8
19
1:
1<
1>
#266
1$
06
#267
b01011011 2
b10111111 4
b00101001 5
16
b10111111 8
#268
06
#269
00
b00101101 2
b11011111 4
b00010100 5
16
07
b11011111 8
09
0:
1;
0<
0>
#270
06
#271
0/
b00010110 2
b01101111 4
b00001010 5
16
b01101111 8
0;
#272
06
#273
1/
10
b00001011 2
b00110111 4
b00000101 5
16
17
b00110111 8
19
1:
1<
1>
#274
06
#275
00
b00000101 2
b10011011 4
b00000010 5
16
07
b10011011 8
09
0:
1;
0<
0>
#276
06
#277
0/
10
b00000010 2
b01001101 4
b00000001 5
16
b01001101 8
1:
1<
#278
06
#279
1/
00
b00000001 2
b00100110 4
b00000000 5
16
b00100110 8
0:
0<
#280
06
#281
0/
b00000000 2
03
b00010011 4
16
b00010011 8
0;
#282
0#
b00000000 (
b00000000 )
06
b00000000 8
#283
b00000000 4
16
#284
1#
0$
b101 *
1.
06
#285
11
16
1;
1<
#286
1$
06
#287
16
#288
06
#289
16
#290
06
#291
16
#292
06
#293
16
#294
06
#295
16
#296
06
#297
16
#298
06
#299
16
#300
06
#301
16
#302
0$
b11111111 (
b11111111 )
06
#303
1/
10
b11111111 2
b11111111 5
16
17
19
1:
0<
1=
#304
1$
06
#305
b01111111 2
b10000000 4
b01111111 5
16
b10000000 8
#306
06
#307
b00111111 2
b11000000 4
b00111111 5
16
b11000000 8
#308
06
#309
b00011111 2
b11100000 4
b00011111 5
16
b11100000 8
#310
06
#311
b00001111 2
b11110000 4
b00001111 5
16
b11110000 8
#312
06
#313
b00000111 2
b11111000 4
b00000111 5
16
b11111000 8
#314
06
#315
b00000011 2
b11111100 4
b00000011 5
16
b11111100 8
#316
06
#317
b00000001 2
b11111110 4
b00000001 5
16
b11111110 8
#318
06
#319
0/
00
b00000000 2
b11111111 4
b00000000 5
16
07
b11111111 8
09
0:
1<
0=
#320
0$
b00100001 (
b11100001 )
06
#321
1/
10
b00100001 2
13
b01111111 4
b11100001 5
16
17
b01111111 8
19
1:
0<
1=
#322
1$
06
#323
0/
00
b00010000 2
b10111111 4
b01110000 5
16
07
b10111111 8
09
0:
1<
0=
#324
06
#325
b00001000 2
b01011111 4
b00111000 5
16
b01011111 8
#326
06
#327
b00000100 2
b00101111 4
b00011100 5
16
b00101111 8
#328
06
#329
b00000010 2
b00010111 4
b00001110 5
16
b00010111 8
#330
06
#331
1/
10
b00000001 2
b00001011 4
b00000111 5
16
17
b00001011 8
19
1:
0<
1=
#332
06
#333
0/
b00000000 2
b10000101 4
b00000011 5
16
b10000101 8
0;
#334
06
#335
b11000010 4
b00000001 5
16
b11000010 8
#336
06
#337
00
03
b11100001 4
b00000000 5
16
07
b11100001 8
09
0:
1;
1<
0=
#338
0#
b00000000 (
b00000000 )
06
b00000000 8
#339
01
b00000000 4
16
0;
0<
#340
1#
0$
b110 *
1-
0.
06
#341
16
#342
1$
06
#343
16
#344
06
#345
16
#346
06
#347
16
#348
06
#349
16
#350
06
#351
16
#352
06
#353
16
#354
06
#355
16
#356
06
#357
16
#358
0$
b11111111 (
b11111111 )
06
#359
1/
10
b11111111 2
b11111111 5
16
17
19
1:
1<
1>
#360
1$
06
#361
11
b01111111 2
b10000000 4
b01111111 5
16
b10000000 8
1;
0<
1=
0>
#362
06
#363
b00111111 2
b11000000 4
b00111111 5
16
b11000000 8
#364
06
#365
b00011111 2
b11100000 4
b00011111 5
16
b11100000 8
#366
06
#367
b00001111 2
b11110000 4
b00001111 5
16
b11110000 8
#368
06
#369
b00000111 2
b11111000 4
b00000111 5
16
b11111000 8
#370
06
#371
b00000011 2
b11111100 4
b00000011 5
16
b11111100 8
#372
06
#373
b00000001 2
b11111110 4
b00000001 5
16
b11111110 8
#374
06
#375
0/
00
b00000000 2
b11111111 4
b00000000 5
16
07
b11111111 8
09
0:
1<
0=
#376
0$
b11000101 (
b10000010 )
06
#377
1/
01
b11000101 2
13
b01111111 4
b10000010 5
16
b01111111 8
0<
#378
1$
06
#379
0/
10
b01100010 2
b00111111 4
b01000001 5
16
b00111111 8
1:
1<
#380
06
#381
1/
00
b00110001 2
b00011111 4
b00100000 5
16
b00011111 8
0:
0<
#382
06
#383
0/
b00011000 2
b00001111 4
b00010000 5
16
b00001111 8
0;
#384
06
#385
b00001100 2
b00000111 4
b00001000 5
16
b00000111 8
#386
06
#387
b00000110 2
b00000011 4
b00000100 5
16
b00000011 8
#388
06
#389
1/
b00000011 2
b00000001 4
b00000010 5
16
b00000001 8
1;
#390
06
#391
10
b00000001 2
b00000000 4
b00000001 5
16
17
b00000000 8
19
1:
0;
1<
1>
#392
06
#393
0/
00
11
b00000000 2
03
b10000000 4
b00000000 5
16
07
b10000000 8
09
0:
1;
0>
#394
0#
b00000000 (
b00000000 )
06
b00000000 8
#395
01
b00000000 4
16
0;
0<
#396
b111 *
1.
06
#397
16
#398
1#
0$
06
#399
11
16
1;
1<
#400
0#
1$
06
#401
01
16
0;
0<
#402
1#
0$
b11111111 (
b11111111 )
06
#403
1/
10
11
b11111111 2
b11111111 5
16
17
19
1<
1>
#404
0#
1$
b00000000 (
b00000000 )
06
#405
0/
00
01
b00000000 2
b00000000 5
16
07
09
0<
0>
#406
1#
0$
b01100010 (
b00110101 )
06
#407
10
11
b01100010 2
b00110101 5
16
1;
1<
#408
0#
1$
b00000000 (
b00000000 )
b00000000000000000000000000000001 +
06
#409
00
01
b00000000 2
b00000000 5
16
0;
0<
#410
1#
0$
06
#411
11
16
1;
1<
#412
1$
06
#413
16
#414
0#
06
#415
01
16
0;
0<
#416
1#
0$
b11111111 (
b11111111 )
06
#417
1/
10
11
b11111111 2
b11111111 5
16
17
19
1<
1>
#418
1$
06
#419
b01111111 2
b10000000 4
b01111111 5
16
b10000000 8
#420
0#
b00000000 (
b00000000 )
06
b00000000 8
#421
0/
00
01
b00000000 2
b00000000 4
b00000000 5
16
07
09
0<
0>
#422
1#
0$
b00010010 (
b01010110 )
06
#423
11
b00010010 2
b01010110 5
16
1;
1<
#424
1$
06
#425
1/
10
b00001001 2
b00101011 5
16
17
19
0;
1>
#426
0#
b00000000 (
b00000000 )
b00000000000000000000000000000010 +
06
#427
0/
00
01
b00000000 2
b00000000 5
16
07
09
0<
0>
#428
1#
0$
06
#429
11
16
1;
1<
#430
1$
06
#431
16
#432
06
#433
16
#434
0#
06
#435
01
16
0;
0<
#436
1#
0$
b11111111 (
b11111111 )
06
#437
1/
10
11
b11111111 2
b11111111 5
16
17
19
1<
1>
#438
1$
06
#439
b01111111 2
b10000000 4
b01111111 5
16
b10000000 8
#440
06
#441
b00111111 2
b11000000 4
b00111111 5
16
b11000000 8
#442
0#
b00000000 (
b00000000 )
06
b00000000 8
#443
0/
00
01
b00000000 2
b00000000 4
b00000000 5
16
07
09
0<
0>
#444
1#
0$
b11111101 (
b11110100 )
06
#445
1/
11
b11111101 2
b11110100 5
16
17
19
1<
1>
#446
1$
06
#447
0/
b01111110 2
b10000000 4
b01111010 5
16
07
b10000000 8
09
1;
0>
#448
06
#449
1/
10
b00111111 2
b01000000 4
b00111101 5
16
17
b01000000 8
19
0;
1>
#450
0#
b00000000 (
b00000000 )
b00000000000000000000000000000011 +
06
b00000000 8
#451
0/
00
01
b00000000 2
b00000000 4
b00000000 5
16
07
09
0<
0>
#452
1#
0$
06
#453
11
16
1;
1<
#454
1$
06
#455
16
#456
06
#457
16
#458
06
#459
16
#460
0#
06
#461
01
16
0;
0<
#462
1#
0$
b11111111 (
b11111111 )
06
#463
1/
10
11
b11111111 2
b11111111 5
16
17
19
1<
1>
#464
1$
06
#465
b01111111 2
b10000000 4
b01111111 5
16
b10000000 8
#466
06
#467
b00111111 2
b11000000 4
b00111111 5
16
b11000000 8
#468
06
#469
b00011111 2
b11100000 4
b00011111 5
16
b11100000 8
#470
0#
b00000000 (
b00000000 )
06
b00000000 8
#471
0/
00
01
b00000000 2
b00000000 4
b00000000 5
16
07
09
0<
0>
#472
1#
0$
b00111011 (
b01011000 )
06
#473
1/
11
b00111011 2
b01011000 5
16
17
19
1<
1>
#474
1$
06
#475
b00011101 2
b10000000 4
b00101100 5
16
b10000000 8
#476
06
#477
0/
b00001110 2
b11000000 4
b00010110 5
16
07
b11000000 8
09
1;
0>
#478
06
#479
1/
10
b00000111 2
b01100000 4
b00001011 5
16
17
b01100000 8
19
0;
1>
#480
0#
b00000000 (
b00000000 )
b00000000000000000000000000000100 +
06
b00000000 8
#481
0/
00
01
b00000000 2
b00000000 4
b00000000 5
16
07
09
0<
0>
#482
1#
0$
06
#483
11
16
1;
1<
#484
1$
06
#485
16
#486
06
#487
16
#488
06
#489
16
#490
06
#491
16
#492
0#
06
#493
01
16
0;
0<
#494
1#
0$
b11111111 (
b11111111 )
06
#495
1/
10
11
b11111111 2
b11111111 5
16
17
19
1<
1>
#496
1$
06
#497
b01111111 2
b10000000 4
b01111111 5
16
b10000000 8
#498
06
#499
b00111111 2
b11000000 4
b00111111 5
16
b11000000 8
#500
06
#501
b00011111 2
b11100000 4
b00011111 5
16
b11100000 8
#502
06
#503
b00001111 2
b11110000 4
b00001111 5
16
b11110000 8
#504
0#
b00000000 (
b00000000 )
06
b00000000 8
#505
0/
00
01
b00000000 2
b00000000 4
b00000000 5
16
07
09
0<
0>
#506
1#
0$
b10110010 (
b01011100 )
06
#507
11
b10110010 2
b01011100 5
16
1;
1<
#508
1$
06
#509
1/
b01011001 2
b00101110 5
16
17
19
0;
1>
#510
06
#511
0/
10
b00101100 2
b10000000 4
b00010111 5
16
07
b10000000 8
09
1;
0>
#512
06
#513
b00010110 2
b01000000 4
b00001011 5
16
b01000000 8
#514
06
#515
1/
b00001011 2
b00100000 4
b00000101 5
16
17
b00100000 8
19
0;
1>
#516
0#
b00000000 (
b00000000 )
b00000000000000000000000000000101 +
06
b00000000 8
#517
0/
00
01
b00000000 2
b00000000 4
b00000000 5
16
07
09
0<
0>
#518
1#
0$
06
#519
11
16
1;
1<
#520
1$
06
#521
16
#522
06
#523
16
#524
06
#525
16
#526
06
#527
16
#528
06
#529
16
#530
0#
06
#531
01
16
0;
0<
#532
1#
0$
b11111111 (
b11111111 )
06
#533
1/
10
11
b11111111 2
b11111111 5
16
17
19
1<
1>
#534
1$
06
#535
b01111111 2
b10000000 4
b01111111 5
16
b10000000 8
#536
06
#537
b00111111 2
b11000000 4
b00111111 5
16
b11000000 8
#538
06
#539
b00011111 2
b11100000 4
b00011111 5
16
b11100000 8
#540
06
#541
b00001111 2
b11110000 4
b00001111 5
16
b11110000 8
#542
06
#543
b00000111 2
b11111000 4
b00000111 5
16
b11111000 8
#544
0#
b00000000 (
b00000000 )
06
b00000000 8
#545
0/
00
01
b00000000 2
b00000000 4
b00000000 5
16
07
09
0<
0>
#546
1#
0$
b00011110 (
b10011110 )
06
#547
11
b00011110 2
b10011110 5
16
1;
1<
#548
1$
06
#549
1/
10
b00001111 2
b01001111 5
16
17
19
0;
1>
#550
06
#551
b00000111 2
b10000000 4
b00100111 5
16
b10000000 8
#552
06
#553
b00000011 2
b11000000 4
b00010011 5
16
b11000000 8
#554
06
#555
b00000001 2
b11100000 4
b00001001 5
16
b11100000 8
#556
06
#557
0/
00
b00000000 2
b11110000 4
b00000100 5
16
07
b11110000 8
09
1;
0>
#558
0#
b00000000 (
b00000000 )
b00000000000000000000000000000110 +
06
b00000000 8
#559
01
b00000000 4
b00000000 5
16
0;
0<
#560
1#
0$
06
#561
11
16
1;
1<
#562
1$
06
#563
16
#564
06
#565
16
#566
06
#567
16
#568
06
#569
16
#570
06
#571
16
#572
06
#573
16
#574
0#
06
#575
01
16
0;
0<
#576
1#
0$
b11111111 (
b11111111 )
06
#577
1/
10
11
b11111111 2
b11111111 5
16
17
19
1<
1>
#578
1$
06
#579
b01111111 2
b10000000 4
b01111111 5
16
b10000000 8
#580
06
#581
b00111111 2
b11000000 4
b00111111 5
16
b11000000 8
#582
06
#583
b00011111 2
b11100000 4
b00011111 5
16
b11100000 8
#584
06
#585
b00001111 2
b11110000 4
b00001111 5
16
b11110000 8
#586
06
#587
b00000111 2
b11111000 4
b00000111 5
16
b11111000 8
#588
06
#589
b00000011 2
b11111100 4
b00000011 5
16
b11111100 8
#590
0#
b00000000 (
b00000000 )
06
b00000000 8
#591
0/
00
01
b00000000 2
b00000000 4
b00000000 5
16
07
09
0<
0>
#592
1#
0$
b10011110 (
b11101110 )
06
#593
11
b10011110 2
b11101110 5
16
1;
1<
#594
1$
06
#595
1/
10
b01001111 2
b01110111 5
16
17
19
0;
1>
#596
06
#597
b00100111 2
b10000000 4
b00111011 5
16
b10000000 8
#598
06
#599
b00010011 2
b11000000 4
b00011101 5
16
b11000000 8
#600
06
#601
00
b00001001 2
b11100000 4
b00001110 5
16
b11100000 8
#602
06
#603
0/
10
b00000100 2
b11110000 4
b00000111 5
16
07
b11110000 8
09
1;
0>
#604
06
#605
b00000010 2
b01111000 4
b00000011 5
16
b01111000 8
#606
0#
b00000000 (
b00000000 )
b00000000000000000000000000000111 +
06
b00000000 8
#607
00
01
b00000000 2
b00000000 4
b00000000 5
16
0;
0<
#608
1#
0$
06
#609
11
16
1;
1<
#610
1$
06
#611
16
#612
06
#613
16
#614
06
#615
16
#616
06
#617
16
#618
06
#619
16
#620
06
#621
16
#622
06
#623
16
#624
0#
06
#625
01
16
0;
0<
#626
1#
0$
b11111111 (
b11111111 )
06
#627
1/
10
11
b11111111 2
b11111111 5
16
17
19
1<
1>
#628
1$
06
#629
b01111111 2
b10000000 4
b01111111 5
16
b10000000 8
#630
06
#631
b00111111 2
b11000000 4
b00111111 5
16
b11000000 8
#632
06
#633
b00011111 2
b11100000 4
b00011111 5
16
b11100000 8
#634
06
#635
b00001111 2
b11110000 4
b00001111 5
16
b11110000 8
#636
06
#637
b00000111 2
b11111000 4
b00000111 5
16
b11111000 8
#638
06
#639
b00000011 2
b11111100 4
b00000011 5
16
b11111100 8
#640
06
#641
b00000001 2
b11111110 4
b00000001 5
16
b11111110 8
#642
0#
b00000000 (
b00000000 )
06
b00000000 8
#643
0/
00
01
b00000000 2
b00000000 4
b00000000 5
16
07
09
0<
0>
#644
1#
0$
b00010000 (
b01110110 )
06
#645
11
b00010000 2
b01110110 5
16
1;
1<
#646
1$
06
#647
10
b00001000 2
b00111011 5
16
#648
06
#649
b00000100 2
b00011101 5
16
#650
06
#651
00
b00000010 2
b00001110 5
16
#652
06
#653
1/
10
b00000001 2
b00000111 5
16
17
19
0;
1>
#654
06
#655
0/
b00000000 2
b10000000 4
b00000011 5
16
07
b10000000 8
09
1;
0>
#656
06
#657
b01000000 4
b00000001 5
16
b01000000 8
#658
06
#659
00
b00100000 4
b00000000 5
16
b00100000 8
#660
0#
b00000000 (
b00000000 )
b00000000000000000000000000001000 +
06
b00000000 8
#661
01
b00000000 4
16
0;
0<
#662
1#
0$
06
#663
11
16
1;
1<
#664
1$
06
#665
16
#666
06
#667
16
#668
06
#669
16
#670
06
#671
16
#672
06
#673
16
#674
06
#675
16
#676
06
#677
16
#678
06
#679
16
#680
0#
06
#681
01
16
0;
0<
#682
1#
0$
b11111111 (
b11111111 )
06
#683
1/
10
11
b11111111 2
b11111111 5
16
17
19
1<
1>
#684
1$
06
#685
b01111111 2
b10000000 4
b01111111 5
16
b10000000 8
#686
06
#687
b00111111 2
b11000000 4
b00111111 5
16
b11000000 8
#688
06
#689
b00011111 2
b11100000 4
b00011111 5
16
b11100000 8
#690
06
#691
b00001111 2
b11110000 4
b00001111 5
16
b11110000 8
#692
06
#693
b00000111 2
b11111000 4
b00000111 5
16
b11111000 8
#694
06
#695
b00000011 2
b11111100 4
b00000011 5
16
b11111100 8
#696
06
#697
b00000001 2
b11111110 4
b00000001 5
16
b11111110 8
#698
06
#699
0/
00
b00000000 2
b11111111 4
b00000000 5
16
07
b11111111 8
09
1;
0>
#700
0#
b00000000 (
b00000000 )
06
b00000000 8
#701
01
b00000000 4
16
0;
0<
#702
1#
0$
b01100011 (
b11000000 )
06
#703
1/
11
b01100011 2
b11000000 5
16
17
19
1<
1>
#704
1$
06
#705
b00110001 2
b10000000 4
b01100000 5
16
b10000000 8
#706
06
#707
0/
b00011000 2
b11000000 4
b00110000 5
16
07
b11000000 8
09
1;
0>
#708
06
#709
b00001100 2
b01100000 4
b00011000 5
16
b01100000 8
#710
06
#711
b00000110 2
b00110000 4
b00001100 5
16
b00110000 8
#712
06
#713
1/
b00000011 2
b00011000 4
b00000110 5
16
17
b00011000 8
19
0;
1>
#714
06
#715
10
b00000001 2
b10001100 4
b00000011 5
16
b10001100 8
#716
06
#717
0/
b00000000 2
b11000110 4
b00000001 5
16
07
b11000110 8
09
1;
0>
#718
06
#719
00
b01100011 4
b00000000 5
16
b01100011 8
#720
0#
b00000000 (
b00000000 )
b00000000000000000000000000001001 +
06
b00000000 8
#721
01
b00000000 4
16
0;
0<
#722
1#
0$
06
#723
11
16
1;
1<
#724
1$
06
#725
16
#726
06
#727
16
#728
06
#729
16
#730
06
#731
16
#732
06
#733
16
#734
06
#735
16
#736
06
#737
16
#738
06
#739
16
#740
06
#741
16
#742
0#
06
#743
01
16
0;
0<
#744
1#
0$
b11111111 (
b11111111 )
06
#745
1/
10
11
b11111111 2
b11111111 5
16
17
19
1<
1>
#746
1$
06
#747
b01111111 2
b10000000 4
b01111111 5
16
b10000000 8
#748
06
#749
b00111111 2
b11000000 4
b00111111 5
16
b11000000 8
#750
06
#751
b00011111 2
b11100000 4
b00011111 5
16
b11100000 8
#752
06
#753
b00001111 2
b11110000 4
b00001111 5
16
b11110000 8
#754
06
#755
b00000111 2
b11111000 4
b00000111 5
16
b11111000 8
#756
06
#757
b00000011 2
b11111100 4
b00000011 5
16
b11111100 8
#758
06
#759
b00000001 2
b11111110 4
b00000001 5
16
b11111110 8
#760
06
#761
0/
00
b00000000 2
b11111111 4
b00000000 5
16
07
b11111111 8
09
1;
0>
#762
06
#763
13
b01111111 4
16
b01111111 8
#764
0#
b00000000 (
b00000000 )
06
b00000000 8
#765
01
03
b00000000 4
16
0;
0<
#766
1#
0$
b00011101 (
b00100010 )
06
